{
    "type":[
        {
            "name":"Vegetable"
        },
        {
            "name":"Pork"
        },
        {
            "name":"Fish"
        },
        {
            "name":"Chicken"
        },
        {
            "name":"Beef"
        },
        {
            "name":"Reserved Food"
        },
        {
            "name":"Special"
        },
        {
            "name":"Misc"
        }
    ]
}